<svg width="11" height="17" viewBox="0 0 11 17" fill="none" xmlns="http://www.w3.org/2000/svg">
<path d="M5.59998 6.2C3.99998 6.2 2.59998 4.8 2.59998 3.1C2.59998 1.4 3.89998 0 5.59998 0C7.19998 0 8.49997 1.4 8.49997 3.1C8.49997 4.8 7.19998 6.2 5.59998 6.2ZM5.59998 1.5C4.69998 1.5 3.99997 2.3 3.99997 3.2C3.99997 4.1 4.69998 4.9 5.59998 4.9C6.49998 4.9 7.09998 4.1 7.09998 3.2C7.09998 2.3 6.39998 1.5 5.59998 1.5Z" fill="white"/>
<path d="M6.30002 16.4H4.30002C3.30002 16.4 2.5 16 2.5 15.4L1.5 12.2C0.6 12.1 0 11.7 0 11.1V7.69998C0 6.99998 0.699994 6.59998 1.89999 6.59998H3.70001C3.90001 6.59998 4.10001 6.69998 4.20001 6.79998C4.30001 6.89998 4.69999 6.99997 5.39999 6.99997C6.09999 6.99997 6.50001 6.79998 6.60001 6.79998C6.70001 6.59998 6.90001 6.59998 7.10001 6.59998H8.89999C9.99999 6.59998 10.8 6.99998 10.8 7.69998V11.1C10.8 11.7 10.2 12.1 9.10001 12.2L8.20001 15.4C8.10001 16 7.40002 16.4 6.30002 16.4ZM3.80002 14.9C3.90002 14.9 4.10002 15 4.30002 15H6.30002C6.50002 15 6.70002 15 6.80002 14.9L7.80002 11.2C7.90002 10.9 8.2 10.7 8.5 10.7H8.89999C9.09999 10.7 9.19999 10.7 9.39999 10.7V7.99997C9.29999 7.99997 9.09999 7.99997 8.89999 7.99997H7.39999C6.99999 8.29997 6.19999 8.49997 5.39999 8.49997C4.59999 8.49997 3.89999 8.29997 3.39999 7.99997H1.89999C1.69999 7.99997 1.59999 7.99997 1.39999 7.99997V10.7C1.49999 10.7 1.69999 10.7 1.89999 10.7H2C2.3 10.7 2.60001 10.9 2.70001 11.2L3.80002 14.9Z" fill="white"/>
</svg>
