<svg width="22" height="22" viewBox="0 0 22 22" fill="none" xmlns="http://www.w3.org/2000/svg">
<g clip-path="url(#clip0)">
<path d="M13.0625 19.25H8.9375C8.558 19.25 8.25 18.942 8.25 18.5625C8.25 18.183 8.558 17.875 8.9375 17.875H13.0625C13.442 17.875 13.75 18.183 13.75 18.5625C13.75 18.942 13.442 19.25 13.0625 19.25Z" fill="white"/>
<path d="M11 3.16892C10.6205 3.16892 10.3125 2.86092 10.3125 2.48142V0.6875C10.3125 0.308 10.6205 0 11 0C11.3795 0 11.6875 0.308 11.6875 0.6875V2.48142C11.6875 2.86092 11.3795 3.16892 11 3.16892Z" fill="white"/>
<path d="M17.0235 5.66413C16.8475 5.66413 16.6715 5.59721 16.5376 5.46246C16.269 5.19388 16.269 4.75846 16.5376 4.48988L17.8063 3.22121C18.0749 2.95263 18.5103 2.95263 18.7789 3.22121C19.0475 3.4898 19.0475 3.92521 18.7789 4.1938L17.5102 5.46246C17.3755 5.5963 17.1995 5.66413 17.0235 5.66413V5.66413Z" fill="white"/>
<path d="M21.3125 11.6875H19.5186C19.1391 11.6875 18.8311 11.3795 18.8311 11C18.8311 10.6205 19.1391 10.3125 19.5186 10.3125H21.3125C21.692 10.3125 22 10.6205 22 11C22 11.3795 21.692 11.6875 21.3125 11.6875Z" fill="white"/>
<path d="M18.2921 18.9796C18.1161 18.9796 17.9401 18.9126 17.8063 18.7779L16.5376 17.5092C16.269 17.2406 16.269 16.8052 16.5376 16.5366C16.8062 16.2681 17.2416 16.2681 17.5102 16.5366L18.7789 17.8053C19.0475 18.0739 19.0475 18.5093 18.7789 18.7779C18.6441 18.9126 18.4681 18.9796 18.2921 18.9796Z" fill="white"/>
<path d="M3.7079 18.9796C3.5319 18.9796 3.3559 18.9126 3.22207 18.7779C2.95348 18.5093 2.95348 18.0739 3.22207 17.8053L4.49073 16.5366C4.75932 16.2681 5.19473 16.2681 5.46332 16.5366C5.7319 16.8052 5.7319 17.2406 5.46332 17.5092L4.19465 18.7779C4.0599 18.9126 3.8839 18.9796 3.7079 18.9796V18.9796Z" fill="white"/>
<path d="M2.48142 11.6875H0.6875C0.308 11.6875 0 11.3795 0 11C0 10.6205 0.308 10.3125 0.6875 10.3125H2.48142C2.86092 10.3125 3.16892 10.6205 3.16892 11C3.16892 11.3795 2.86092 11.6875 2.48142 11.6875Z" fill="white"/>
<path d="M4.97657 5.66413C4.80057 5.66413 4.62457 5.59721 4.49073 5.46246L3.22207 4.1938C2.95348 3.92521 2.95348 3.4898 3.22207 3.22121C3.49065 2.95263 3.92607 2.95263 4.19465 3.22121L5.46332 4.48988C5.7319 4.75846 5.7319 5.19388 5.46332 5.46246C5.32765 5.5963 5.15257 5.66413 4.97657 5.66413V5.66413Z" fill="white"/>
<path d="M14.4375 11.4583C14.058 11.4583 13.75 11.1503 13.75 10.7708C13.75 9.38025 12.6197 8.25 11.2291 8.25C10.8496 8.25 10.5416 7.942 10.5416 7.5625C10.5416 7.183 10.8496 6.875 11.2291 6.875C13.3769 6.875 15.125 8.62308 15.125 10.7708C15.125 11.1503 14.817 11.4583 14.4375 11.4583Z" fill="white"/>
<path d="M12.1458 22H9.8541C9.08135 22 8.24993 21.4133 8.24993 20.1263V18.5093C8.24993 17.5368 7.8356 16.6439 7.14168 16.1214C5.13876 14.6135 4.21201 12.133 4.7226 9.64792C5.22218 7.21326 7.1921 5.23601 9.62401 4.72726C11.5573 4.32117 13.5363 4.79142 15.0452 6.01792C16.5522 7.24259 17.4166 9.05851 17.4166 11C17.4166 12.9782 16.5228 14.8143 14.9645 16.0398C14.1927 16.6467 13.7499 17.4918 13.7499 18.3581V20.3958C13.7499 21.2804 13.0303 22 12.1458 22V22ZM10.9871 5.96017C10.6278 5.96017 10.2657 5.99776 9.9036 6.07292C8.0006 6.47076 6.45968 8.01809 6.06826 9.92384C5.66585 11.8828 6.39368 13.8371 7.9676 15.0223C9.00435 15.8033 9.62401 17.1068 9.62401 18.5093V20.1263C9.62401 20.2098 9.63501 20.625 9.85318 20.625H12.1448C12.2713 20.625 12.374 20.5223 12.374 20.3958V18.3581C12.374 17.0665 13.0083 15.8281 14.1138 14.9582C15.3394 13.9957 16.0416 12.5528 16.0416 11C16.0416 9.47467 15.3614 8.04742 14.1771 7.08492C13.2714 6.34976 12.1485 5.96017 10.9871 5.96017V5.96017Z" fill="white"/>
</g>
<defs>
<clipPath id="clip0">
<rect width="22" height="22" fill="white"/>
</clipPath>
</defs>
</svg>
