<svg width="19" height="17" viewBox="0 0 19 17" fill="none" xmlns="http://www.w3.org/2000/svg">
<path d="M4.1794 4.44528H12.5384C12.7484 4.44528 12.9184 4.27958 12.9184 4.07481C12.9184 3.87004 12.7484 3.70435 12.5384 3.70435H4.1794C3.96938 3.70435 3.79944 3.87004 3.79944 4.07481C3.79947 4.27962 3.96942 4.44528 4.1794 4.44528Z" fill="white"/>
<path d="M8.73884 8.1499H4.1794C3.96938 8.1499 3.79944 8.3156 3.79944 8.52037C3.79944 8.72514 3.96938 8.89083 4.1794 8.89083H8.73884C8.94886 8.89083 9.11881 8.72514 9.11881 8.52037C9.11881 8.3156 8.94886 8.1499 8.73884 8.1499Z" fill="white"/>
<path d="M16.7833 1.48183C16.7612 1.48183 16.7399 1.48721 16.718 1.48822V1.48183C16.718 0.664595 16.036 0 15.1981 0H1.51983C0.681993 0 0 0.664595 0 1.48183V15.9296C0 16.0793 0.0927561 16.2146 0.234491 16.2718C0.28126 16.291 0.330951 16.3 0.37993 16.3C0.478634 16.3 0.575843 16.2624 0.64858 16.1915L4.33681 12.5955H15.1981C16.036 12.5955 16.718 11.9309 16.718 11.1136V4.96911L17.8118 3.90279C17.8118 3.90279 17.8118 3.90279 17.8118 3.90245C18.0827 3.63836 18.2378 3.27296 18.2378 2.89996C18.2378 2.11784 17.5855 1.48183 16.7833 1.48183ZM15.958 11.1136C15.958 11.5221 15.6174 11.8545 15.1981 11.8545H4.17947C4.07856 11.8545 3.98207 11.8936 3.91082 11.9631L0.759895 15.0353V1.48183C0.759895 1.0734 1.10053 0.740932 1.51979 0.740932H15.1981C15.6174 0.740932 15.958 1.0734 15.958 1.48183V1.73487C15.8859 1.78322 15.8169 1.83639 15.7547 1.89713L11.6206 5.92728H4.17947C3.96946 5.92728 3.79951 6.09298 3.79951 6.29775C3.79951 6.50252 3.96946 6.66821 4.17947 6.66821H11.011L10.6461 8.44778C10.6209 8.56934 10.6602 8.69489 10.75 8.78241C10.822 8.8526 10.9192 8.89094 11.0187 8.89094C11.0432 8.89094 11.0684 8.8884 11.0929 8.88372L12.9919 8.51325C13.0661 8.49877 13.1336 8.46369 13.1863 8.41194L15.958 5.70994V11.1136ZM12.7307 7.80885L11.5033 8.04835L11.7489 6.85016L15.198 3.48732L16.1806 4.44542L12.7307 7.80885ZM17.2745 3.37896L16.7179 3.92162L15.7352 2.96345L16.2919 2.42062C16.4211 2.29507 16.5999 2.22273 16.7832 2.22273C17.1661 2.22273 17.4778 2.52661 17.4778 2.89996C17.4779 3.07796 17.4036 3.25272 17.2745 3.37896Z" fill="white"/>
</svg>
